{ "runes": [
  {"rune": "Fehu", "image": "images/fehu.svg", "description": "Livestock/wealth. Property, prosperity, fertility, increase, social success"},
  {"rune": "Uruz", "image": "images/uruz.svg", "description": "Auroch/wild ox. Energy, health, strength, tenacity, courage"},
  {"rune": "Thurisaz", "image": "images/thurisaz.svg", "description": "Thor/Giant. Reactionary, defensive, destruction. Instinct, willpower, regeneration, lightning, electricity"},
  {"rune": "Ansuz", "image": "images/ansuz.svg", "description": "Ancestral spirit/A god. Revelation, insight, power of words/names, divine intervention"},
  {"rune": "Raido", "image": "images/raido.svg", "description": "Wagon/Journey. Travel, evolution, moving forward, gaining perspective"},
  {"rune": "Kenaz", "image": "images/kenaz.svg", "description": "Beacon/Torch. Creativity, inspiration, harnessed power, world-changing ability"},
  {"rune": "Gebo", "image": "images/gebo.svg", "description": "Gift/Exchanges. Generosity, balance, contracts, relationships, partnerships"},
  {"rune": "Wunjo", "image": "images/wunjo.svg", "description": "Joy/Happiness. Harmony, spiritual reward, pleasure, comfort, glory"},
  {"rune": "Hagalaz", "image": "images/hagalaz.svg", "description": "Hail/Weather. Uncontrollable forces, (nature, the subconscious), crisis before harmony"},
  {"rune": "Naudiz", "image": "images/naudiz.svg", "description": "Need/Distress. Resistance, requirements to be met, endurence, patience, survival, trial, test"},
  {"rune": "Isaz", "image": "images/isaz.svg", "description": "Ice/Frustration. Mental blocks, confusion to be unraveled, stalled until knowledge is gained"},
  {"rune": "Jera", "image": "images/jera.svg", "description": "Good year/Harvest. Effort realized, fruitful results, hope, earned success, cycles of time or life"},
  {"rune": "Eihwaz", "image": "images/eihwaz.svg", "description": "Yew Tree/Reliability. Dependability, trustworthiness, protection, honesty, well-chosen goals that will be accomplished"},
  {"rune": "Perthro", "image": "images/perthro.svg", "description": "Dice Cup/Mystery. Chance, secrets, the occult, initiation, destiny, setting out on the path"},
  {"rune": "Algiz", "image": "images/algiz.svg", "description": "Elk/Protection. Shield, shelter, wards against evil, a guardian, connection to the gods"},
  {"rune": "Sowilo", "image": "images/sowilo.svg", "description": "The Sun/Life-Force. Success, honor, life, positive changes, victory, cleansing fire, power"},
  {"rune": "Tiwaz", "image": "images/tiwaz.svg", "description": "Tyr/Leadership. Authority, justice, rationality, success in compition, self-sacrifice"},
  {"rune": "Berkano", "image": "images/berkano.svg", "description": "Birch Tree/Birth. Fertility, birth, growth, liberation, renewal, new beginings, love, family"},
  {"rune": "Ehwaz", "image": "images/ehwaz.svg", "description": "Horses/Travel. Physical transportation, slow but steady progress, teamwork, trust, ideal marriage or parnership"},
  {"rune": "Mannaz", "image": "images/mannaz.svg", "description": "Mankind/The Self. The individual, skill, forethought, ability, humanity, social order"},
  {"rune": "Lagiz", "image": "images/lagiz.svg", "description": "Water/Regenereation. Healing, rest, renewal, dreams, the underworld, the imagination"},
  {"rune": "Ingwaz", "image": "images/ingwaz.svg", "description": "Monarch/Seat Of Power. Control, answering to nobody, authority without implying justice"},
  {"rune": "Degaz", "image": "images/dagaz.svg", "description": "Dawn/Day. Awakening, breakthrough, a new venture, positive change, hope, security"},
  {"rune": "Othala", "image": "images/othala.svg", "description": "Birthright/Home. Inheritance, home, spirtual heritage, fundamental rights, source of safety, that which is important"}
]}