{ "symbols": [
  {"symbol": "Tower", "image": "images/tower.svg", "description": "Obstacle, fortess, location"},
  {"symbol": "Crown", "image": "images/crown.svg", "description": "Royalty, intrigue, power"},
  {"symbol": "Heart", "image": "images/heart.svg", "description": "Family, friendship, romance"},
  {"symbol": "Skull", "image": "images/skull.svg", "description": "Loss, change, death"},
  {"symbol": "Sun", "image": "images/sun.svg", "description": "Clarity, revalation, discovery"},
  {"symbol": "Moon", "image": "images/moon.svg", "description": "Confusion, misunderstanding, subterfuge"},
  {"symbol": "Sword", "image": "images/sword.svg", "description": "Conflict, disagreement, battle"},
  {"symbol": "Shield", "image": "images/shield.svg", "description": "Protection, defense, safety"},
  {"symbol": "Target", "image": "images/target.svg", "description": "Goals, objectives, distance"},
  {"symbol": "Wand", "image": "images/wand.svg", "description": "Magic, technology, strangeness"}
]}